R@URBAN – getting-data
…
    income_data <- get_acs(geography = "tract", 
                                                 variables = vars, 
                                                 state = state_fips,
                                                 year = 2015)
    
    return(income_data)
    
}

# iterate the function
map_df(.x = state_fips, # iterate along the vector of state fips codes
             .f = get_income) # apply get_income() to each fips_code  

# A tibble: 2,874 × 5
   GEOID       NAME                                        varia…¹ estim…²   moe
   <chr>       <chr>                                       <chr>     <dbl> <dbl>
 1 01001020100 Census Tract 201, Autauga County, Alabama   B19013…   61838 11900
 2 01001020200 Census Tract 202, Autauga County, Alabama   B19013…   32303 13538
 3 01001020300 Census Tract 203, Autauga County, Alabama   B19013…   44922  5629
 4 01001020400 Census Tract 204, Autauga County, Alabama   B19013…   54329  7003
 5 01001020500 Census Tract 205, Autauga County, Alabama   B19013…   51965  6935
 6 01001020600 Census Tract 206, Autauga County, Alabama   B19013…   63092  9585
 7 01001020700 Census Tract 207, Autauga County, Alabama   B19013…   34821  7867
 8 01001020801 Census Tract 208.01, Autauga County, Alaba… B19013…   73728  2447
 9 01001020802 Census Tract 208.02, Autauga County, Alaba… B19013…   60063  8602
10 01001020900 Census Tract 209, Autauga County, Alabama   B19013…   41287  7857
# … with 2,864 more rows, and abbreviated variable names ¹​variable, ²​estimate
…
getCensus(name = "acs/acs5",
                    key = Sys.getenv("CENSUS_API_KEY"),
                    vars = vars, 
                    region = "tract:*",
                    regionin = "state:01",
                    vintage = 2015) %>%
    as_tibble()

# A tibble: 1,181 × 5
   state county tract  B19013_001E B19013_001M
   <chr> <chr>  <chr>        <dbl>       <dbl>
 1 01    103    005109       29644        4098
 2 01    103    005106       35864        3443
 3 01    103    005107       66739        5468
 4 01    103    005108       64632        9804
 5 01    103    005701       46306        7926
 6 01    103    005702       47769       12939
 7 01    105    686800       30662        7299
 8 01    009    050102       43325        9484
 9 01    009    050300       37548        9655
10 01    009    050700       46452        5167
# … with 1,171 more rows
…
    return(income_data)
    
}

# iterate the function
map_df(.x = state_fips, # iterate along the vector of state fips codes
             .f = get_income) %>% # apply get_income() to each fips_code  
    as_tibble() 

# A tibble: 2,874 × 5
   state county tract  B19013_001E B19013_001M
   <chr> <chr>  <chr>        <dbl>       <dbl>
 1 01    103    005109       29644        4098
 2 01    103    005106       35864        3443
 3 01    103    005107       66739        5468
 4 01    103    005108       64632        9804
 5 01    103    005701       46306        7926
 6 01    103    005702       47769       12939
 7 01    105    686800       30662        7299
 8 01    009    050102       43325        9484
 9 01    009    050300       37548        9655
10 01    009    050700       46452        5167
# … with 2,864 more rows
